{
    "language" : "hy",
    "count" : 702,
    "words" : ["է","եմ","եք","ես","որ","պր","մի","էր","ձեզ","նա","ինձ","ոչ","և","այդ","էի","համար","ձեր","չէ","դուք","ի","այս","սակայն","ք","նրա","ուզում","բայց","ր","կատադրոյֆե","պարոն","ինչ","կարող","իսկ","իմ","հետ","նչ","քեզ","այստեղ","նրան","թե","պետք","արդեն","միայն","ն","ամեն","բան","մեկ","են","եվ","դե","անգամ","չեմ","նոր","եթե","չէր","էլ","դրեյվերհավենը","այն","այլ","դա","շատ","ոչինչ","դեռ","լ","հետո","լավ","օրիորդ","յակոբ","ս","ւ","յակո","բ","նրանից","ղ","այո","ավելի","բարի","եկել","չի","ժամանակ","մայրս","գուցե","այդպես","այլևս","մոտ","խնդրում","էին","ւմ","ենք","մեր","գուլդեն","ո","մորս","սնանկ","մասին","կարծում","ինչո","երբեք","տանը","տարի","մեջ","նախագահ","ասել","պարտք","վ","դատական","կամ","օր","ց","քանի","գումարը","ասում","չէի","առաջին","երեք","ունեք","մենք","ունի","չե","իր","միշտ","դու","տուն","տիկին","կատարածու","օրը","ւն","անց","հասկանում","երեկո","ունեմ","ներեցեք","ետ","ամիս","կարելի","գրասենյակում","չունե","այնտեղ","հիմա","դուրս","հարկե","երբ","ասելու","դրեյվերհավենին","դրեյվերհավեն","փաստաբան","նույնպես","գալիս","դրեյվերհավենի","ողջ","դեպքում","թույլ","քիչ","աշխատում","եղել","հաճելի","կրեդիտային","ու","գիտեք","շնորհակալություն","ժամը","պարտքը","վիլլեմ","թ","վարկ","կրկին","ազատելու","յան","այժմ","նք","վերջին","հենց","ե","դո","ժորժե","անում","չեն","առաջ","ցանկանում","տեսնել","չես","չ","դրա","րբ","մեզ","ևս","փաստորեն","կա","երկու","այնքան","վաղն","վատ","նորից","հարգելի","դրանք","սա","ցույց","հաջողություն","գիշեր","կարո","հուսով","գումար","ժողովրդական","ունես","ճիշտ","եկեք","արագ","վան","շուտով","ամբողջ","տ","այսօր","բոլոր","չեք","ստրոմքոնինգի","շնորհավորում","ձեռքը","ա","յոբա","ով","որքա","մ","չունեմ","մարդ","որոշեցի","որտեղի","պատվելի","ցավում","յֆե","առավոտյան","վստահ","հանգիստ","ներս","սովորել","կատադրո","բացառիկ","հաջորդ","դիմել","խանութ","ահա","լիովին","ինչպես","ակնկալիք","լինի","ինքս","մեծ","առանց","տանից","ինը","հավանաբար","դոկտոր","տալ","տալիս","որն","հաղթել","վրա","կլինի","որքան","ծանո","դր","մարդիկ","երկար","այդքան","խանկելարի","ուշ","միջև","էիք","ինչպիսի","գիտե","հա","ոք","ստրոմքոնինգը","մարդը","սպասում","նաև","նույնիսկ","մինչև","հ","որպես","անել","լինել","ընթացքում","օրենքի","եղեք","շնորհակալ","հարգանքներով","փորձել","կողմից","գրասենյակի","յ","պարո","մնում","սովորում","պաշտպանվող","դրեյվերհավենն","հասնում","նը","րը","ավելին","անվախ","կարևոր","պահանջել","ռենտենստայնը","ոչնչի","այստե","նկատմամբ","սնանկության","հակառակ","տվեք","շենքը","իրար","պահին","կանգնած","դժվար","պարոնը","յանսե","կայարան","ցատկեց","տանի","ընկավ","նչն","նավը","գտել","հեշտ","հանուն","կողմն","գրքեր","իմանալ","վերցրել","ուրեմն","շաբաթից","վտանգավոր","տեղ","ունե","խանկելար","մայեր","բանկը","հարյուր","հաճախորդների","գործ","ճանաչելու","լորնա","լինելու","պարոնայք","վերցնել","վախենում","առա","արա","ջ","ձեզանից","առաջարկում","չունի","բոլորը","գնամ","տալու","դրեյվերհավե","տա","ազատվել","ամբողջովին","դատարանում","մաանը","կոմունիստ","բերել","վարձով","սնանկացման","հո","սենյակը","առայժմ","ւք","ինչպե","բրա","որպեսզի","մտածում","րոպե","ցտեսություն","վո","աշխատելու","չէինք","վեյվեր","աշխատանք","չորս","եկա","գալու","դեհ","որտե","խոսում","կեսօրին","պիտի","երիտասարդ","վեց","մյուս","սրիկա","երևի","հոգ","հրաշալի","թվում","նման","շաբաթ","կատարածուն","հեռու","լռությունը","որոշում","անմիջապես","տեղափոխվել","որևէ","գիտեր","գամ","ապա","գոյություն","անունը","լուկաս","ամուսնության","առաջարկի","գալ","համեցեք","ներեցե","կսկսվի","համագործակցել","չենք","պատահականություն","վարկը","ամուսնանալու","վերցրե","ռենտենստայնի","ամենը","գրեթե","ուղարկել","ուղարկվել","վաղ","անձրև","էհե","գրավ","փուլով","անելու","գիտեմ","աղջիկը","մասը","համա","նախորդ","ծ","հարմար","ուշադրություն","պահ","չլսեցի","մեկը","կարճ","ներքև","չունենք","թվաց","լռում","գուլդենի","ոչի","ապրում","սպասուհի","հանդիպել","մոռացել","աշխատել","վստա","հարցնում","կոբին","ոտքի","տար","խոչընդոտ","սկիզբ","մայրդ","պոռնիկ","ուրիշի","բացվում","կինը","շնորհիվ","պտուղ","ճանաչում","հրամանով","նշանակում","այնպես","կրակեք","այնուհետև","բացակայության","որոշեց","կարծես","փոքրիկ","ծխախոտի","կասեցնել","շնորհավո","բանկի","խանութի","ուղեկցելու","գործը","վաղը","կողմ","շխուվախթին","պահանջում","ընկերակցությունը","կատադրոյֆեն","կառավարիչ","վիլլե","հարմա","ներող","պրծնի","դատարանին","հիանալի","օրից","նստեք","համոզված","դիպչի","գրքերի","դիպչել","փորձիր","վճարել","գուլդենը","գլխին","բավական","դեմ","օգնիր","ուրիշ","այսպես","կրում","աշխատանքի","շխուվախթ","կերպով","կառաջարկեմ","խանկելարն","նն","բացատրություն","հայտնաբերել","թող","կատադրոյֆեի","տեսնեմ","դիմեք","ամենայն","գտնել","զբոսնե","խմել","հնարավոր","թշնամուն","մնացած","նրանց","հեռանում","հանդիպելը","այստեղից","այցելել","հարկավոր","ռայն","մայե","դառնում","գրասենյակ","ներկայանալ","գրքե","արժեքը","բոլորիդ","ամբողջական","ընկերակցության","հարուցվել","արել","պետական","տեղեկացնում","երևում","անի","տեսել","սարսափելի","հետևանքները","ընկերնե","հաջողությամբ","սպասել","գնահատված","գործերը","ասած","նախկինում","իսկապես","ուսումնասիրում","բառերը","խմում","անկեղծ","սեղմել","կ","փոխվել","թողնել","նույն","շնորհավորո","գտանք","կգա","հանդիպումը","չունեք","վճարվել","զարմանալի","գեղեցիկ","դրանից","խելացի","օգնել","նգ","երիտասարդը","մեքենագրել","պատրաստ","կյանքս","դրեյվերհավենից","պարտքեր","խոչընդոտել","զգում","իրեն","մաանի","հազար","տեսնում","տեսա","սկզբում","տղա","չգիտեմ","գնացինք","արդյո","ջուրը","այդպե","խանկելարը","քննության","փաստ","լարված","առնված","անգամն","գրադարանը","կորցրել","տղային","փնտրում","հնարավորինս","շուտ","պահի","տհաճ","փողոց","խանկելա","բարով","արժանի","արդե","գնացիք","լինելը","ւնդ","նորություն","անո","մադամ","պատմել","աշխատանքից","պահել","մաղթում","ուստի","կյանքից","բացի","ենթադրում","ժամ","վարձը","տեղափոխվում","նեղություն","տան","վախ","տեսք","սիբկուլո","ժորժեն","քարտուղարուհին","ձեռք","երդվյալ","ֆրանսերեն","ծանոթացել","հանկարծ","ժամանակվա","վերցնելու","գրողը","դրությունը","մեկնում","պատճառով","նշանածի","այսօրվանից","մեկուկես","փաստաբանը","բաց","մասնավոր","էինք","նախ","որը","դեր","օգնե","մոր","ներողություն","նկատում","արտասահման","աշխատանքս","քո","տրվում","առջև","պարզ","լսել","մեկս","ընդունել","օտար","ճշմարտությունն","էջ","փորձում","հոգնած","կյանքում","ծագում","ամենևին","գրքերն","տասերորդը","համարում","ստիպված","միաժամանակ","առ","պարտքն","հասկացա"]
}
